R in 3 Months: Week 12 (Advanced Data Viz)
…
<img src='images/gg_week_4_export.png' width='700px'/>

---

### Jump back in where it makes sense for you

- Week 7: is your data long or wide? Use pivot_longer() or pivot_wider() to show us.

```r
billboard
```

```
## # A tibble: 317 × 79
##    artist   track   date.entered   wk1   wk2   wk3   wk4   wk5   wk6   wk7   wk8
##    <chr>    <chr>   <date>       <dbl> <dbl> <dbl> <dbl> <dbl> <dbl> <dbl> <dbl>
##  1 2 Pac    Baby D… 2000-02-26      87    82    72    77    87    94    99    NA
##  2 2Ge+her  The Ha… 2000-09-02      91    87    92    NA    NA    NA    NA    NA
##  3 3 Doors… Krypto… 2000-04-08      81    70    68    67    66    57    54    53
##  4 3 Doors… Loser   2000-10-21      76    76    72    69    67    65    55    59
##  5 504 Boyz Wobble… 2000-04-15      57    34    25    17    17    31    36    49
##  6 98^0     Give M… 2000-08-19      51    39    34    26    26    19     2     2
##  7 A*Teens  Dancin… 2000-07-08      97    97    96    95   100    NA    NA    NA
##  8 Aaliyah  I Don'… 2000-01-29      84    62    51    41    38    35    35    38
##  9 Aaliyah  Try Ag… 2000-03-18      59    53    38    28    21    18    16    14
## 10 Adams, … Open M… 2000-08-26      76    76    74    69    68    67    61    58
## # … with 307 more rows, and 68 more variables: wk9 <dbl>, wk10 <dbl>,
## #   wk11 <dbl>, wk12 <dbl>, wk13 <dbl>, wk14 <dbl>, wk15 <dbl>, wk16 <dbl>,
## #   wk17 <dbl>, wk18 <dbl>, wk19 <dbl>, wk20 <dbl>, wk21 <dbl>, wk22 <dbl>,
## #   wk23 <dbl>, wk24 <dbl>, wk25 <dbl>, wk26 <dbl>, wk27 <dbl>, wk28 <dbl>,
## #   wk29 <dbl>, wk30 <dbl>, wk31 <dbl>, wk32 <dbl>, wk33 <dbl>, wk34 <dbl>,
## #   wk35 <dbl>, wk36 <dbl>, wk37 <dbl>, wk38 <dbl>, wk39 <dbl>, wk40 <dbl>,
## #   wk41 <dbl>, wk42 <dbl>, wk43 <dbl>, wk44 <dbl>, wk45 <dbl>, wk46 <dbl>, …
```
…
